{
  "total": 100,
  "per_page": 15,
  "current_page": 1,
  "last_page": 7,
  "next_page_url": "http://local.laravel-seo-pagination-helper.co.uk/blog/articles?page=2",
  "prev_page_url": null,
  "from": 1,
  "to": 15,
  "data": [
    {
      "id": 11002,
      "title": "Deserunt odio exercitationem qui animi in cupiditate.",
      "content": "Aliquam autem inventore et voluptatibus temporibus libero sed. Necessitatibus id omnis id consequatur sunt. Molestias nihil totam voluptates consequatur et omnis. Corrupti tempora provident possimus.Dolore id in repellat maxime illum delectus. Est voluptatum at velit ea error. Fugit odio velit nostrum quo eum impedit est incidunt. Quaerat quia quisquam dolore occaecati unde.Aut sed exercitationem ad id. Nihil dolorum placeat iusto voluptas voluptates. Et similique vel adipisci consequatur commodi. Modi repellat veniam dolores animi odio perferendis et. Omnis animi adipisci voluptatem numquam eaque sint provident nisi.In expedita deleniti et eveniet sit corrupti doloribus. Et ullam veritatis aut esse et corrupti mollitia. Dolore officiis rerum alias ea dolorum dolor.Sit alias doloribus qui eum similique aut recusandae. Saepe quia veritatis dolorum. Modi distinctio consequatur rerum sapiente.",
      "created_at": null,
      "updated_at": null
    },
    {
      "id": 11003,
      "title": "Debitis distinctio optio ea error.",
      "content": "Aliquid dolor voluptas nemo et suscipit sed est nemo. Velit aliquam nobis dolores optio ipsam. Occaecati explicabo eos vel totam minus pariatur perspiciatis.Itaque sed rem atque et dicta. Libero optio et ut sequi. Animi natus delectus sit eos qui explicabo enim. Commodi deserunt voluptatem exercitationem quia quis ea.Suscipit exercitationem qui libero dicta voluptatibus inventore libero. Voluptas omnis repellat velit accusantium nulla. Distinctio id exercitationem blanditiis libero temporibus ad omnis iste.Ut ea et eius earum cum maxime. Repellat cum vel veniam blanditiis temporibus consequuntur odit. Sint voluptatem maxime quam aut autem rerum minus.Sequi nostrum exercitationem dolor in labore voluptas. Eum eos occaecati ab natus libero eligendi. Rerum cumque cupiditate ipsam ullam possimus.",
      "created_at": null,
      "updated_at": null
    },
    {
      "id": 11004,
      "title": "Voluptatibus cum temporibus aut voluptatem quia itaque quasi.",
      "content": "Ut non corporis ullam. Totam quaerat repudiandae nobis est vel quasi asperiores.Provident sapiente sunt eos. Rerum impedit et cum et eum accusamus cumque qui. Magni sint vero minima iste eos veritatis tenetur. Dolore doloribus delectus sit est quisquam quo.Deserunt nam est et quo iusto. Minima natus fuga tempore beatae sed. Dolores ea placeat veritatis natus nemo et harum expedita. Facere ex et qui sed quibusdam vero asperiores.Consequuntur dolores quos ab excepturi ipsa iusto laborum. Suscipit vel fugiat deserunt dolore accusantium nihil dolore. Dolor sit dolor explicabo dolores et quo aut. Odio atque id voluptatem id repellendus vel quasi corrupti.Voluptatem odio et provident vel eum accusantium dolorem. Enim ut quo sint tempora voluptas maiores. Quibusdam voluptas est qui rerum architecto enim doloremque.",
      "created_at": null,
      "updated_at": null
    },
    {
      "id": 11005,
      "title": "Doloremque magnam dignissimos quia aut tempora laudantium doloribus.",
      "content": "Commodi nisi cupiditate error sint eius. Nihil porro voluptas voluptas dignissimos quaerat dolores.Quaerat magni qui officia dolor quia. Praesentium eaque alias tempora totam. Laborum facilis cupiditate sunt ullam et ut.Quo voluptates et ad magnam esse aut tempora. Aut labore a et sed enim dignissimos eaque. Libero modi molestiae possimus veritatis error qui. Qui placeat vel voluptas quia dolorem quo aut.Eveniet ipsa consequatur possimus necessitatibus accusantium voluptas enim. Suscipit et autem qui ut sed. Ab recusandae qui odio nobis. Perferendis aut iusto ratione impedit at.Officia dolorem nam quasi harum necessitatibus ipsam natus recusandae. Corrupti atque fugiat ut. Provident doloremque quod aliquam sed delectus. Ut autem voluptatum qui odit eligendi minima odit voluptatem.",
      "created_at": null,
      "updated_at": null
    },
    {
      "id": 11006,
      "title": "Quia sint aut accusantium minima totam et voluptatibus.",
      "content": "In modi placeat ea dolore repudiandae. Quia aut quisquam quam et cupiditate quibusdam officia. Dolorem illo et sunt iure sunt libero ullam. Ipsa nihil ipsa omnis est officiis.Vero debitis et necessitatibus qui. Ut eligendi esse asperiores numquam nulla quos cupiditate.Quaerat dolorum ab dolorum temporibus. Modi minus nesciunt saepe atque nisi doloribus. Voluptas ut aliquam doloribus praesentium qui doloremque. Officiis sit voluptatem facere.Repellat quas ab minima ut facilis. Facilis et voluptas rerum vel.Assumenda amet dicta qui et. Veniam facere vitae explicabo eos. Et aut atque sed rerum. Fuga error ab ipsum amet.",
      "created_at": null,
      "updated_at": null
    },
    {
      "id": 11007,
      "title": "Et distinctio voluptates animi quasi aliquam aut et.",
      "content": "Quibusdam quo natus laborum itaque est. Dolorum saepe temporibus possimus tenetur culpa dolorem consequatur. Modi accusantium nemo inventore ab in.Dolorem reiciendis omnis natus voluptatem temporibus. Quisquam consequatur odit eveniet aut voluptatem ut in ratione. Odio reiciendis dolorum quis et. Quasi consequatur dolorem aperiam assumenda harum id nisi.Vel ad veritatis laborum ratione voluptate voluptas. Dolores qui aspernatur est nulla inventore quasi dicta. Adipisci ex est voluptatem iusto perspiciatis minima in. Placeat et qui excepturi repellendus quo sint omnis.In quod fugiat quia dolor voluptatem nobis et. Commodi error odio non voluptates. Hic necessitatibus aliquid mollitia placeat nemo accusamus.Iure expedita reprehenderit est quibusdam omnis. Non est dicta nisi. Suscipit explicabo et dolorum voluptas quisquam rerum.",
      "created_at": null,
      "updated_at": null
    },
    {
      "id": 11008,
      "title": "Modi repudiandae sit sint corrupti ullam ratione ut quae.",
      "content": "Sequi hic aut tempora ipsa numquam et fugiat. Facilis itaque saepe autem culpa sed. Dolore aut consequuntur debitis esse fugiat aut nihil incidunt.Totam id deserunt ipsa voluptatem consequatur exercitationem. Est autem id molestiae officiis officiis quas. Libero repellendus quia ipsam rerum qui perspiciatis et ut. Non laborum iste rerum itaque est corrupti.Aliquam eos cupiditate repellendus harum natus non modi. Vel qui quasi id in fuga molestiae ipsum.Molestiae dignissimos laudantium nobis ea quo. Necessitatibus amet delectus reiciendis possimus sed. Qui et ut id dolorum ducimus sed est.Est ullam accusantium aut. Dicta velit ad sit impedit totam pariatur. Consequatur ratione quo officiis ipsa ut doloribus. Voluptatem minus est consequatur omnis numquam eius. Unde consequatur et error dicta molestias expedita nemo.",
      "created_at": null,
      "updated_at": null
    },
    {
      "id": 11009,
      "title": "Sed et blanditiis et voluptas.",
      "content": "Non debitis et non ut. Est doloremque magni quos hic cum deserunt. Et velit quia nostrum iste voluptatem nam molestiae. Eveniet incidunt suscipit error quasi maxime.Consequatur eius rem vel sit quia. Et ut ea doloribus voluptas. Dolorem natus ad rerum nobis.Esse asperiores a quia nisi temporibus voluptas. Quia praesentium quisquam exercitationem numquam ullam ad. Molestiae aliquam ea inventore. Quia labore adipisci quia consequatur et vel.Vitae dolorum eos aut repellendus vitae consequuntur vel. Provident unde quia aut neque alias ut. Quis consequatur et impedit vero.Veniam quisquam quae odit asperiores laborum et. Voluptatem qui aut a rem. Ut architecto amet animi ipsum. Sint qui ipsam omnis voluptates cum.",
      "created_at": null,
      "updated_at": null
    },
    {
      "id": 11010,
      "title": "Modi autem aliquid quas ea.",
      "content": "Dicta repellat ut quos architecto quos. Quia quisquam delectus qui eius eos suscipit. Aut est veritatis sed laboriosam explicabo voluptatem. Dolor tempora nemo soluta illum voluptas.Aut et autem rerum aut. Ratione non deserunt molestias rem et voluptas. Tenetur sed praesentium dignissimos pariatur voluptates est voluptas.Numquam enim vel id quis temporibus. Animi ipsa et ratione. Itaque voluptates nemo cumque consequatur. Omnis consequuntur vitae laboriosam et incidunt rerum voluptatem.Velit nesciunt ad aut sed impedit consequatur ratione. Aliquid placeat aut repudiandae et quia. Odio hic aut voluptatem ullam necessitatibus nam aspernatur. Officiis odio doloremque et alias sit.Et ea aspernatur est pariatur vitae minus. Consequatur eaque rerum consequatur praesentium explicabo quos eos nostrum. Numquam sapiente eveniet aut.",
      "created_at": null,
      "updated_at": null
    },
    {
      "id": 11011,
      "title": "Praesentium velit ad inventore est excepturi est quia dolorem.",
      "content": "Occaecati sit doloremque ut repudiandae. Sit alias corrupti id dolorum. Magnam molestiae itaque delectus qui.Ut neque provident ea aut exercitationem tempora aut. Minima iste et sint ab ut quia reprehenderit.Quia illum molestiae aut eius. At autem voluptatem laudantium qui quaerat itaque aut et.Enim et eos recusandae id repudiandae iste rerum. Deserunt sint ipsa dolore veritatis reiciendis. Occaecati similique ut error repellat inventore sit dolores.Et aut id iure. Tenetur blanditiis quia possimus veritatis. Sit dignissimos itaque impedit omnis ut.",
      "created_at": null,
      "updated_at": null
    },
    {
      "id": 11012,
      "title": "Excepturi consectetur modi ut et ipsa nihil repellendus quas.",
      "content": "Ad quo distinctio illo aut aut cumque et. Ipsa enim voluptatum magnam. Omnis aut saepe est et.Iste corrupti quis voluptas aliquid soluta dolores incidunt. Fugit facere nulla quia aut aspernatur et. Placeat quis sit dolores officiis dolorum ipsam molestiae. Deserunt id molestias ea reiciendis aut dolorem.Atque ipsam voluptatibus et consequatur qui quod. Dolorem quos ut quis ipsum voluptas dolores non.Sit quaerat sit delectus aut non ipsa et. Architecto velit enim distinctio perferendis excepturi reprehenderit eum. Libero consectetur ea autem consectetur quia delectus dicta. Et repellat libero ea. Consequatur debitis placeat ut repellendus alias.Nihil aliquam nulla beatae eum. Quo odit mollitia illum voluptatibus incidunt. Officiis odio animi quia voluptatum animi explicabo et.",
      "created_at": null,
      "updated_at": null
    },
    {
      "id": 11013,
      "title": "Dolorum atque nihil iusto velit nostrum.",
      "content": "Aut culpa autem omnis et. Vel nemo reiciendis cumque voluptatum. Aliquid iure commodi culpa voluptas qui deserunt autem. Eum dolorem consequuntur recusandae cumque quisquam.Et aut iste enim eius atque. Aliquid sed assumenda est. Non quod rerum earum veritatis. Sed esse aliquam quae est.Libero minima laboriosam magnam. Temporibus sit et consequatur aliquam fuga nihil eius. Aut corrupti est quod.Ea quas iste delectus pariatur vel. Cum corporis laudantium deleniti repellat iusto. Blanditiis vero explicabo aut laborum voluptatem ut aliquam.Eaque minima voluptate saepe id illo. Et non aut omnis explicabo dolor eum. Aut eos consectetur temporibus doloribus alias consequatur perspiciatis.",
      "created_at": null,
      "updated_at": null
    },
    {
      "id": 11014,
      "title": "Ratione voluptatem deserunt odio vel mollitia cum velit.",
      "content": "Cupiditate vero tenetur dolores sit incidunt. Eum odio beatae doloremque veniam non ea voluptatibus. Iure ipsa quia suscipit eum porro delectus.Aperiam corrupti voluptatem nihil quae nisi omnis. Et quasi corporis dolor consequuntur omnis dolorum.Eum corporis animi ex asperiores. Tempora cupiditate est libero.Perspiciatis voluptatem beatae nam maiores consequuntur. Temporibus sit sit asperiores ab culpa porro autem.Molestiae numquam nulla odio nam corrupti autem. Aut dolor quia minima odit. Quisquam est quia deleniti minus deserunt.",
      "created_at": null,
      "updated_at": null
    },
    {
      "id": 11015,
      "title": "Nihil id magnam eum quos.",
      "content": "Blanditiis laboriosam et atque quibusdam repudiandae voluptate. Et quas ratione enim id eos ut. Voluptate enim saepe excepturi eum nobis quia minima.Aut harum dolorem harum totam aut dolorum dicta deleniti. Quis tenetur minima soluta nam. Commodi qui dolor eaque tenetur in.Porro dignissimos et autem enim dolores. Voluptas sed reiciendis velit sint eveniet. Et beatae repellat eum velit deserunt aut enim. Quasi nulla soluta error autem. Soluta tempora accusamus asperiores excepturi.In vel enim inventore consectetur amet aut et. Fugit consequatur et esse soluta. Cumque fugiat qui quis voluptatem in dignissimos quam.Nulla aperiam nesciunt est nostrum consequatur rem sint est. Voluptas deserunt aut nisi aut et corporis dignissimos. Quam sed dolores sunt eum vitae error.",
      "created_at": null,
      "updated_at": null
    },
    {
      "id": 11016,
      "title": "Alias deleniti vel in.",
      "content": "Ducimus ut iusto consequatur. Repudiandae nulla ut voluptate sed veniam eum quod dolorem. Inventore quae vero facere in quos. Eius nesciunt ea praesentium molestiae qui vitae voluptatem.Est voluptatem voluptatibus officia et quasi. Nobis occaecati expedita cumque rerum ea corporis et. Excepturi ut consequuntur et tempora molestiae maxime. Distinctio quam temporibus quod iste est aspernatur error.Neque officiis quis qui dolorem ipsa. Velit reiciendis necessitatibus eos nam sint. Quis consequuntur dicta et ipsam et. Id hic et occaecati neque ipsum.Et vero maxime et nihil est. Iure animi rerum quaerat possimus sint.Dolores esse omnis eius illo mollitia nisi. Velit rerum velit iusto voluptatem est nulla. Voluptas quisquam quae itaque et. Ipsum placeat eligendi mollitia consequatur id non consequuntur nihil.",
      "created_at": null,
      "updated_at": null
    }
  ]
}