{
  "total": 100,
  "per_page": 15,
  "current_page": 5,
  "last_page": 7,
  "next_page_url": "http://local.laravel-seo-pagination-helper.co.uk/blog/articles?page=6",
  "prev_page_url": "http://local.laravel-seo-pagination-helper.co.uk/blog/articles?page=4",
  "from": 61,
  "to": 75,
  "data": [
    {
      "id": 11062,
      "title": "Sit sunt et facilis voluptates.",
      "content": "Et libero laborum ducimus ut et quia. Placeat illum ipsa similique officia non reprehenderit. Quod nulla dolorem ipsam dolor quia.Saepe aperiam necessitatibus qui maxime repudiandae eos ad natus. Ex non similique et eveniet ducimus eos.Nulla odio quo est est magnam sit. Voluptates voluptas repellendus facere consequatur rem.Quo sint consequuntur nesciunt quis corporis minima sed nemo. Quos et sit et ducimus expedita perspiciatis occaecati error. Excepturi eos pariatur omnis suscipit quaerat. Est natus quo aut. Omnis voluptatem amet molestiae.Quae rerum nostrum reiciendis consequatur enim id minus. Asperiores et sit aut est. Veritatis nemo vitae modi sit reiciendis sed nesciunt. Nemo qui officiis aut autem nihil quibusdam corporis. Aliquid facere delectus nobis maxime eos necessitatibus quasi.",
      "created_at": null,
      "updated_at": null
    },
    {
      "id": 11063,
      "title": "Atque molestias saepe quos eos aut illum accusantium.",
      "content": "Dicta repellendus facilis quae ut. Repellat nulla commodi tempora laborum voluptates omnis. Quod voluptatum officia incidunt. Voluptas non commodi quis.Voluptates voluptatem incidunt iure doloribus vel possimus. Quas eligendi vel qui. Ut qui quod natus qui id.Voluptatibus in vel porro rerum. Facere vel nostrum illo quisquam voluptates natus. Voluptas qui ut id ipsam minima. Assumenda enim unde asperiores qui aut temporibus. Distinctio tempora aliquid excepturi sit.Vel minima fuga id nostrum id eos. Sint nam quis quod ipsa perspiciatis et aspernatur. Mollitia ex tempore omnis. Soluta in in magni iste molestias fugit.Unde impedit et quas quis rerum. Ut autem perferendis quis sapiente. Ad perspiciatis accusantium sit ea impedit consequuntur distinctio.",
      "created_at": null,
      "updated_at": null
    },
    {
      "id": 11064,
      "title": "Quidem perferendis sequi perspiciatis culpa fuga consequuntur.",
      "content": "Aperiam doloribus numquam quibusdam ratione. Accusantium in perspiciatis mollitia. Omnis nemo similique quisquam impedit.Quasi expedita dolores est eum consequatur et. Sed qui voluptas cupiditate qui explicabo et nisi. Iusto eum et molestiae culpa est temporibus.Sequi enim quo iste tempora voluptas omnis. Laudantium ipsa quae debitis nesciunt ab. Nostrum hic incidunt quaerat quo dicta omnis corporis.Fugiat ullam quasi commodi qui ea. Voluptatum perferendis architecto quod sed illo et rerum quasi. Et enim sapiente numquam architecto et consequuntur qui. Molestiae ut similique neque tenetur rem ad.Dolores nobis dolores dolor exercitationem. Praesentium doloremque illum ut. Molestiae rerum non sequi natus incidunt et consequatur.",
      "created_at": null,
      "updated_at": null
    },
    {
      "id": 11065,
      "title": "Officiis eligendi quo ab.",
      "content": "Qui quia minus sapiente est ut quos asperiores. Vel laboriosam architecto qui perspiciatis minima officia eius. Occaecati quo magnam magni quia.Quam itaque natus deserunt omnis. Qui laboriosam soluta aut ea aut. Et quia illum est reprehenderit ut.Sit minima excepturi itaque officia maiores accusamus. Optio nemo aperiam maxime aut inventore perferendis voluptas illum. Ratione earum modi quia sit quia voluptatem aliquam modi.Corrupti dolores nostrum velit totam nesciunt fugiat. Ut iure quisquam est et ab. Quisquam at cupiditate sint. Sed fugit sit asperiores vel ut quis itaque error.Recusandae consequatur neque quibusdam est a quasi. Enim consectetur assumenda rerum consequatur aut. Sit modi sit ducimus et quo.",
      "created_at": null,
      "updated_at": null
    },
    {
      "id": 11066,
      "title": "Minus explicabo ut consequatur.",
      "content": "Natus quas voluptatem ab veniam. Voluptates sed voluptas saepe. Atque sed aliquid eos labore earum alias earum. Expedita temporibus ipsa eius temporibus qui sed.Ea esse aspernatur ab qui explicabo ut molestiae. Illum dolorum autem consequuntur et. Alias ipsum aspernatur voluptatem ipsum aut.Nihil ut quis quos debitis nobis. Fugit molestiae suscipit quia reprehenderit. Quia ut blanditiis possimus iusto minima impedit deleniti aut.Sapiente consequatur ut perferendis natus. Quia ex et quia. Ut maxime consectetur dignissimos reiciendis molestiae et.Et et ipsa nostrum nostrum quisquam. Maxime voluptas sunt dolorem. Illo sint voluptatem totam eveniet quo.",
      "created_at": null,
      "updated_at": null
    },
    {
      "id": 11067,
      "title": "Consequuntur culpa quasi deleniti aliquid adipisci excepturi vel.",
      "content": "Voluptatem error accusantium est deleniti aspernatur quia. Placeat hic nemo non et. Exercitationem eligendi iusto nulla unde omnis quae iste. Molestiae ut sit magnam tempore temporibus reiciendis.Voluptatem atque eos voluptas. Ab aut et eum officia rem autem. Qui et mollitia accusamus. Nihil laudantium dicta incidunt maiores.Repellendus delectus voluptatem tempore blanditiis sit. Mollitia nostrum nostrum dolor accusantium ipsam temporibus. Tenetur laborum eum sunt debitis eum. Et voluptas quae est accusamus optio veritatis.Velit eum facere voluptatem esse. Repellendus nostrum consequatur sunt nihil.Nostrum minus totam itaque necessitatibus eum saepe cumque. Molestias est sunt rerum qui voluptatibus sequi. Dicta ut architecto veritatis corrupti voluptas labore. Voluptatem ut rem consectetur qui.",
      "created_at": null,
      "updated_at": null
    },
    {
      "id": 11068,
      "title": "Nihil ullam laborum molestiae ducimus sit debitis eaque.",
      "content": "Rerum voluptatum earum ut est omnis rerum dicta impedit. Repellendus reprehenderit ipsam facere nihil quia expedita at. Maxime asperiores vitae et fugit quod quis placeat.Quia placeat quaerat eos libero molestiae voluptas. Id voluptatem expedita pariatur omnis molestiae vero. Optio et et commodi minima quidem ducimus.Quia necessitatibus dolores ipsa aliquam iure qui. Adipisci amet quia quisquam quia quis maiores ipsam consectetur. Voluptas est sint expedita atque quidem dolores earum.Ut odit dolore ut sunt possimus sint amet. Itaque magni sit nihil qui. Non sed quia labore vero minus. Soluta tempore saepe quia harum.Possimus molestiae quae ea reprehenderit. Magnam sit et est. Voluptatibus ullam eum aperiam qui praesentium et. Ut labore veniam saepe eaque assumenda quibusdam.",
      "created_at": null,
      "updated_at": null
    },
    {
      "id": 11069,
      "title": "Vel ut reiciendis sint est consequuntur nobis recusandae.",
      "content": "Tempora ut esse explicabo qui harum eligendi qui. Doloremque placeat aut reiciendis cupiditate recusandae. Optio omnis sit perferendis cupiditate. Non assumenda expedita quas amet beatae. Velit tempora suscipit cumque ipsa.Quia et et nobis corporis recusandae nostrum enim. Nulla aliquam rerum ullam est fugiat aliquam. Aut quia earum nulla commodi quidem.Esse quibusdam saepe dolorum aut cumque rem. Repellat consectetur odit possimus rerum. Et enim numquam optio et iste accusantium perferendis.Fugiat voluptates officiis corrupti deserunt sit quam. Hic ea et accusamus reprehenderit accusamus officia dignissimos sunt. Qui exercitationem esse nihil. Sapiente et dolor nisi totam.Qui nulla deleniti blanditiis rerum et quisquam. Itaque quia voluptatem asperiores et quo aut. Nemo eos distinctio nemo ea blanditiis adipisci dolore debitis. Voluptates corporis doloribus officiis placeat libero dolorem et.",
      "created_at": null,
      "updated_at": null
    },
    {
      "id": 11070,
      "title": "Assumenda et autem eaque nesciunt.",
      "content": "Deleniti dolorem labore id rem omnis quia consequuntur. Facilis maxime explicabo possimus neque possimus esse. Dolorem atque eligendi non. Magnam voluptas facilis asperiores necessitatibus.Voluptas reprehenderit odio et voluptas non. Debitis distinctio accusamus sunt voluptas reiciendis. Reiciendis nihil natus occaecati quidem labore.Sunt qui dolorum quia veniam distinctio provident. Impedit fuga harum a debitis voluptatem ad. Sint minus est in. Inventore totam quidem perspiciatis molestias.Id animi magnam eum aperiam et recusandae. Sint aut assumenda incidunt cupiditate. Doloremque autem quo tempore voluptas non quam quas aperiam. Architecto voluptate repellendus ex nesciunt.Est corporis placeat incidunt dolor ut rerum. Error sunt et nihil ea. Commodi consequatur ab qui et sapiente et laborum ex. Fuga suscipit eaque laborum quam distinctio porro repellat iusto. Unde beatae quia consequatur omnis consectetur tempora voluptas.",
      "created_at": null,
      "updated_at": null
    },
    {
      "id": 11071,
      "title": "Placeat consequatur assumenda illo dolorem labore ratione ut.",
      "content": "Ut nam eum suscipit maxime. Quis vitae dolor in reiciendis nihil. Corrupti et ut porro sint eos. Ut saepe perferendis quam laboriosam. Rem quaerat laboriosam porro impedit et.Aut et nam quam. Sit officiis pariatur ipsam id pariatur fugiat. Ut eum nostrum numquam sunt praesentium. Et similique modi et veniam qui delectus. Nemo aut cumque quibusdam consectetur quisquam magnam quam.Sint non quasi consequatur fuga ut expedita ut. Omnis atque in consequatur ea exercitationem. Nobis aut odio adipisci fugit occaecati. Ut doloremque omnis rerum ut quia eveniet.Facilis ipsum et perferendis dignissimos rerum magni. Est quo ullam sunt officia libero quas debitis. Hic animi non velit placeat voluptate quae. Eum corrupti quisquam molestias ut dolorem dicta et. Praesentium sit eius sint aut porro.Non aliquam voluptatem ad vero iure quibusdam. Autem aliquam magnam exercitationem accusamus voluptatem aut. Qui inventore deserunt consectetur voluptas voluptatum consequatur reprehenderit. Eum laudantium facere dolorem quo dolores.",
      "created_at": null,
      "updated_at": null
    },
    {
      "id": 11072,
      "title": "Aut rerum necessitatibus accusamus vero.",
      "content": "Quidem dolore voluptatem totam magni quaerat hic et. Iste fugit ad ut veritatis iusto quas molestiae. Voluptas cupiditate vero tempore.Facere nam velit harum et. Placeat in eius occaecati inventore. Fugit et aut est necessitatibus corporis. Temporibus et aut beatae et fugit.Ex consequatur corrupti et autem facilis earum laborum. Perspiciatis sunt non rerum quos enim. Numquam maiores architecto tempora. Velit voluptatibus deserunt voluptas et.Rem dicta fugit autem nihil. Aperiam commodi dolorem et tempora atque. Aperiam dolorum sequi mollitia perspiciatis quo labore saepe ea. Iste quisquam totam in id iusto. Sequi tenetur et omnis earum eius quo.Quasi alias aut facere qui magnam quibusdam nihil iusto. Unde culpa tempore laudantium libero consequatur odit sit earum. Id nesciunt debitis deleniti non qui labore.",
      "created_at": null,
      "updated_at": null
    },
    {
      "id": 11073,
      "title": "Ut blanditiis non molestiae nesciunt culpa blanditiis aperiam.",
      "content": "Quaerat similique magni et quasi est quia qui. At eveniet voluptatum qui quia non beatae perspiciatis. Excepturi eum distinctio perspiciatis error voluptas doloremque. Vero voluptates dolor explicabo labore illo consectetur ipsum. Nesciunt ipsam cum ducimus veniam.Quia ducimus sit quia labore ex fugiat. Non aut porro asperiores omnis pariatur. Et repellendus impedit ullam quia doloremque harum reiciendis. Quia itaque voluptatem rem eum rerum ea vel.Est provident quam ut et ut reprehenderit repudiandae. Nemo necessitatibus dicta deleniti beatae. Et magni laboriosam esse sit. Soluta temporibus omnis non voluptatem consequuntur.Officia minima incidunt alias. Vel reprehenderit recusandae neque et sunt voluptatem. Eos neque suscipit eligendi. Placeat quae esse ut. Asperiores est et reiciendis.Facilis cum dolores aut numquam ea ad. Quam dolor nemo dolor nihil tempore. Modi ratione ipsa at nihil incidunt cupiditate.",
      "created_at": null,
      "updated_at": null
    },
    {
      "id": 11074,
      "title": "Perspiciatis aliquid voluptatem aut facere.",
      "content": "Dolor dolores pariatur nobis soluta in sit. Deleniti magni cum maiores nobis impedit at in maxime. Ducimus vel debitis qui voluptatibus quo.Aliquam beatae ipsam saepe adipisci ipsam ipsam. Voluptatem officia dicta fuga mollitia officia. Non veniam maiores libero rerum fugiat voluptatem. Et neque sequi inventore nam non. Voluptas placeat voluptatem accusamus eum quia assumenda est.Sint aut qui quae itaque omnis. Autem pariatur voluptate quae autem. Neque quisquam ut et.Laborum sit modi minus ut et deserunt suscipit quo. Voluptatibus itaque exercitationem iste enim repellendus voluptatibus. Eveniet aperiam ex nemo nemo veniam assumenda aut delectus. Dolorem earum harum qui voluptas aspernatur.Iste magnam ut eaque et in possimus corrupti. Velit aliquid nostrum consequatur quibusdam. Ut at dolores aut. Quis natus veritatis quia et consequatur. Ipsam deserunt facilis cumque similique eligendi animi.",
      "created_at": null,
      "updated_at": null
    },
    {
      "id": 11075,
      "title": "Voluptatem hic aut adipisci saepe.",
      "content": "Nam ea quidem temporibus. Praesentium enim aut dolorem non ut et. Voluptatem error ipsam fugiat voluptatem. Assumenda qui deleniti repellat.Adipisci autem id et delectus. Qui enim consequatur est et tenetur tenetur. Tempora laudantium recusandae sapiente corporis aut architecto voluptatem.Nulla amet suscipit magnam et. Sit commodi iure possimus libero. Quas vero voluptates eaque id inventore consequatur sit. Consequatur eum laudantium optio quis.Sunt in omnis atque enim est ut. Omnis excepturi ex repudiandae assumenda autem tempore quam sed. Numquam et fugit eos consequatur hic.Dolore corporis dolor itaque quis. Ut repellat esse omnis officia architecto dolorem ipsum.",
      "created_at": null,
      "updated_at": null
    },
    {
      "id": 11076,
      "title": "Iure dolorem eos inventore illum unde qui eum qui.",
      "content": "Quo voluptatem culpa doloribus sunt. Rerum tenetur autem ea aliquam rerum similique. Modi magni libero itaque qui numquam voluptate quam reiciendis. Quo eos perferendis occaecati voluptas excepturi id qui ea.Quo non non voluptatibus totam. Et nostrum blanditiis temporibus. Repellendus quis esse maxime animi.Est consectetur tempore et ea voluptate. Iure adipisci in totam veniam aut illo soluta tempore.Aut optio minus possimus est aspernatur sunt. Qui cumque corporis nostrum vitae.Deserunt in nemo saepe dolorem voluptatem voluptas cupiditate. Voluptatem omnis voluptatem similique neque voluptate sed et. Similique est magni tempore quod nihil. Exercitationem vero doloremque aspernatur ut sit minima et. Qui et reprehenderit et tempore quidem at.",
      "created_at": null,
      "updated_at": null
    }
  ]
}