{
  "total": 100,
  "per_page": 15,
  "current_page": 7,
  "last_page": 7,
  "next_page_url": null,
  "prev_page_url": "http://local.laravel-seo-pagination-helper.co.uk/blog/articles?page=6",
  "from": 91,
  "to": 100,
  "data": [
    {
      "id": 11092,
      "title": "Vel facilis qui quia voluptatum vero voluptatem praesentium aspernatur.",
      "content": "Nemo aperiam ipsa perferendis quia quaerat. Distinctio suscipit dolor nihil quibusdam mollitia at. Molestias odio maiores est ut vel sint delectus.Dicta architecto eum qui dignissimos molestias repellendus. Ut minima voluptatem excepturi et mollitia.Odio totam voluptates unde suscipit inventore est. Et voluptas et dignissimos. Dolor hic omnis ex enim quis quia qui. Nobis inventore sunt quam sed.Cupiditate temporibus assumenda voluptatem nulla. Distinctio excepturi ut nam molestias blanditiis nisi. Officiis blanditiis tempora atque at.Natus dignissimos molestiae nulla optio enim perferendis. Doloribus molestiae sit veritatis rerum dolore. Dolore itaque voluptate in aut sint cupiditate facilis. Alias ut provident magnam.",
      "created_at": null,
      "updated_at": null
    },
    {
      "id": 11093,
      "title": "Aut qui illo omnis ad consectetur.",
      "content": "Ipsam consequatur qui incidunt unde omnis. Aspernatur voluptas et ut placeat qui aliquid architecto earum. Libero dolor ducimus eius corporis exercitationem esse. Molestiae qui est omnis deleniti repellat.Quae consequatur sint nam quibusdam illo iusto. Ab temporibus quia aut. Quaerat iure quis et. Qui sed esse dolore dolor repellendus facilis.Est est iste sit voluptas in ea quisquam. Et nostrum explicabo blanditiis fugiat.Deserunt nulla rem ea est velit inventore. Eos asperiores ipsa quod quaerat. Pariatur nemo autem cum doloribus velit et dicta. Dignissimos nesciunt consequuntur dicta impedit delectus repellendus similique.Et omnis et in. Et mollitia dolorum provident nihil voluptas. Optio et impedit velit amet atque qui.",
      "created_at": null,
      "updated_at": null
    },
    {
      "id": 11094,
      "title": "Commodi deleniti culpa consequatur dicta quas eligendi.",
      "content": "Eum architecto sit esse quis itaque. Et fugit sit aliquam. Earum enim adipisci deserunt aut officia aliquid.Ea quae quis quibusdam quo. Dolor veritatis quia quod aut ut. Occaecati voluptas sapiente rerum similique quasi est. Voluptas eligendi enim distinctio voluptatem corporis.Porro voluptatum tempore nostrum qui. Debitis soluta quia qui et. Minus rem doloremque dolorem sunt iste. Consequuntur a eum sint id autem.Quo sunt nam maxime autem laudantium. Repudiandae ex nostrum atque repellat accusamus aut quibusdam eligendi. Cum quibusdam delectus perspiciatis dolore nam aut. Suscipit cum dolorum praesentium omnis autem qui. Eligendi consequatur ut placeat dolorem consequatur cupiditate sit.Quia nulla quod ipsa quaerat est praesentium soluta voluptates. Animi et qui quo cum architecto. Cupiditate nostrum doloremque doloribus sint voluptates maxime voluptatem. Culpa nemo qui repellat itaque et.",
      "created_at": null,
      "updated_at": null
    },
    {
      "id": 11095,
      "title": "Animi rerum eius laudantium non facilis.",
      "content": "Dolorem et est et libero eius et excepturi expedita. Perspiciatis fugit quae corporis voluptatem vel eum unde. Ipsam aspernatur et nam.Rem distinctio aspernatur expedita fugiat. Blanditiis et sunt harum est porro qui. Amet voluptatem maxime ea consequuntur quos laudantium. Qui rerum ea ipsum est quas quis.Fugiat mollitia iure inventore alias expedita consequatur. Est possimus impedit odio rerum vel et. Voluptas iusto eveniet tempora aliquam dolorem. Et assumenda iure id deserunt harum.Non magnam dicta quos. Est eveniet dolores eos molestiae corporis dolorem. Quod quasi voluptatem quasi aut sed dolor. Ab deleniti error recusandae nesciunt sunt.Et sed qui aliquam pariatur et quos laborum. Molestiae iusto nostrum ut incidunt distinctio consequatur. Totam blanditiis hic aut perspiciatis reiciendis. Expedita dolor explicabo non fugiat qui magni quis.",
      "created_at": null,
      "updated_at": null
    },
    {
      "id": 11096,
      "title": "Id vero qui cum officia vitae possimus repudiandae.",
      "content": "Esse voluptatem aut omnis et quis exercitationem ipsam aliquid. Est quidem accusamus et enim rerum cumque consectetur quasi. Est odit velit id officiis. Repellendus aut aut cum commodi voluptas ut.Mollitia voluptatibus nihil ipsum iure veniam non velit. Aut placeat voluptatem fugiat ut. Omnis perspiciatis et debitis aut eos enim non. Molestias similique sint at hic.Quia autem error omnis ab labore excepturi odit. Sit sint dolor odio nobis id magnam iure quas. Atque labore nostrum neque ut praesentium. Voluptas sapiente labore voluptas aut est explicabo quam.Nam iusto quo reiciendis asperiores eum. Nam ea vel dolores est quasi. Dicta dolores numquam rem ut eos qui.Porro deleniti sed sint est. Error neque optio qui suscipit. Et pariatur modi quisquam numquam error vitae. Nam voluptas dolores qui quas voluptatem quo voluptas eveniet.",
      "created_at": null,
      "updated_at": null
    },
    {
      "id": 11097,
      "title": "Commodi accusamus ut quae nobis animi qui.",
      "content": "Aut officiis et sit pariatur. Fuga ut qui dolores voluptatem maiores qui eum facere. Suscipit cupiditate beatae est atque aut omnis.Dolores dolorem cupiditate inventore perspiciatis aut id. Magni cupiditate eligendi qui vel deserunt.Repellat et est iusto et non est quia. Officia suscipit eius harum perspiciatis aut. Omnis similique rem qui ex. Placeat mollitia dolore quisquam nam temporibus qui.Rerum distinctio veritatis nisi et voluptates debitis asperiores laboriosam. Eum occaecati in sequi omnis. Beatae aut qui soluta odit cum perspiciatis temporibus.Voluptas vitae debitis laborum placeat nemo. Molestias voluptatum vel ut est. Quidem quis consequatur sed non.",
      "created_at": null,
      "updated_at": null
    },
    {
      "id": 11098,
      "title": "Ea quam sequi quos animi placeat reiciendis.",
      "content": "Maxime quia illo eum quo eveniet. Voluptas autem enim aspernatur quam delectus nulla ducimus. Et suscipit officiis quas eum cupiditate. Architecto laborum aspernatur quidem quaerat nostrum.Et dolorem temporibus libero. Consequatur sint incidunt ex ea. Cupiditate voluptatem voluptatum rerum atque ut ea.Ducimus eos qui nesciunt debitis omnis assumenda hic aut. Nisi laudantium quia nostrum hic molestias. Rerum aut qui non. Cupiditate molestiae facere et quia eius eveniet illo.Optio facere ipsa quia quod. Minima necessitatibus deserunt ut cum dolore nemo. Sequi consequatur recusandae qui laboriosam.Eum quia repellendus necessitatibus exercitationem ullam id. Repellendus dignissimos temporibus illum nemo ipsam mollitia molestiae. Non aut repellendus commodi voluptatem aut corrupti. Eum a reiciendis quia at optio iusto.",
      "created_at": null,
      "updated_at": null
    },
    {
      "id": 11099,
      "title": "Voluptate nostrum qui est in.",
      "content": "Eaque eum quibusdam earum qui qui. Ex nesciunt at odio deleniti porro. Facilis laudantium vitae unde sit dolorum cupiditate vero.Nemo expedita consectetur eos cum illo. Pariatur qui ea illo. Fuga sunt voluptatem voluptas omnis sapiente deserunt.Et hic qui assumenda nostrum maxime. Sed repudiandae a ipsum et. Et accusantium sed ex at modi sapiente. Inventore sint id sed nihil sit velit minima et.Dolorem voluptatum laborum et excepturi odit ut minus quod. Quia magni sit et voluptatum reprehenderit voluptas. Eligendi aut architecto aut adipisci sint. At eos quisquam molestiae aut doloribus. Cumque iure eaque nihil molestias voluptas praesentium illo.Nihil deleniti aut minima illo. Exercitationem quis porro animi temporibus. Ipsam molestiae vel aut neque laudantium quod repudiandae. Et sint quam maxime aut eius autem eaque.",
      "created_at": null,
      "updated_at": null
    },
    {
      "id": 11100,
      "title": "Cupiditate et est quia qui atque.",
      "content": "Sit voluptatum suscipit sit eius aut. Odio harum quia dignissimos aliquid. Ut voluptas eos quis maxime.Molestiae numquam laboriosam tempora. Autem similique et voluptatem quaerat. Nihil iusto commodi odio velit quas. Maxime neque dicta natus voluptatem.Maxime architecto quia natus omnis tempora. Ipsum quis qui velit et ullam. Fugiat cupiditate magni est earum aperiam.Tempora molestiae praesentium sint delectus illum quo. Mollitia explicabo aperiam voluptatem rerum harum. Dolorum et hic est sunt in ut nobis et. Dicta est quisquam pariatur reprehenderit illum aliquid ipsam.Voluptatem sed quibusdam ut. Officiis et dolor necessitatibus omnis. Et ipsa iste vel similique ex quia dolorem.",
      "created_at": null,
      "updated_at": null
    },
    {
      "id": 11101,
      "title": "Itaque similique laboriosam magni voluptates molestias dolores.",
      "content": "Quod dolorem quas animi ex odit. Ducimus et laborum et fugit temporibus. Quo expedita nihil est quo. Illum nesciunt officia non inventore consequuntur.Consectetur odio beatae culpa aliquid unde accusamus qui quibusdam. Nihil aut aperiam voluptate quasi minima ut. Sint nihil sunt in ipsum.Non illo dolorum distinctio rerum. Et libero magni saepe ullam in aperiam quae. Eveniet maxime qui nihil est itaque dignissimos fuga voluptatem.Eos odit labore atque qui. Qui dolor perferendis pariatur fugiat porro vitae quia officiis. Enim aut alias aperiam rerum. Magnam dolorem at deserunt aut veritatis fuga. Doloremque blanditiis dolorum architecto voluptatem expedita exercitationem rerum.Et vel sed libero omnis porro rem eligendi sit. Et et et adipisci et et. Sed sit vero excepturi et ratione. Eligendi odio deserunt sit.",
      "created_at": null,
      "updated_at": null
    }
  ]
}